EESchema Schematic File Version 4
EELAYER 30 0
EELAYER END
$Descr A4 11693 8268
encoding utf-8
Sheet 1 1
Title ""
Date ""
Rev ""
Comp ""
Comment1 ""
Comment2 ""
Comment3 ""
Comment4 ""
$EndDescr
$Comp
L Connector:Raspberry_Pi_2_3 J4
U 1 1 61C39B5C
P 5650 2900
F 0 "J4" H 5650 4381 50  0000 C CNN
F 1 "Raspberry_Pi_2_3" H 5650 4290 50  0000 C CNN
F 2 "Connector_PinSocket_2.54mm:PinSocket_2x20_P2.54mm_Vertical" H 5650 2900 50  0001 C CNN
F 3 "https://www.raspberrypi.org/documentation/hardware/raspberrypi/schematics/rpi_SCH_3bplus_1p0_reduced.pdf" H 5650 2900 50  0001 C CNN
F 4 "https://www.raspberrypi.org/documentation/hardware/raspberrypi/schematics/rpi_SCH_3bplus_1p0_reduced.pdf" H 5650 2900 50  0001 C CNN "Datasheet"
F 5 "J4" H 5650 2900 50  0001 C CNN "Reference"
F 6 "Raspberry_Pi_2_3" H 5650 2900 50  0001 C CNN "Value"
	1    5650 2900
	1    0    0    -1  
$EndComp
$Comp
L power:GND #PWR02
U 1 1 61C42284
P 3700 2300
F 0 "#PWR02" H 3700 2050 50  0001 C CNN
F 1 "GND" H 3705 2127 50  0000 C CNN
F 2 "" H 3700 2300 50  0001 C CNN
F 3 "" H 3700 2300 50  0001 C CNN
	1    3700 2300
	1    0    0    -1  
$EndComp
$Comp
L Connector:Conn_01x04_Male J6
U 1 1 61C43D70
P 7250 2300
F 0 "J6" H 7222 2182 50  0000 R CNN
F 1 "Conn_01x04_Male" H 7500 2000 50  0000 R CNN
F 2 "Connector_PinHeader_2.54mm:PinHeader_1x04_P2.54mm_Vertical" H 7250 2300 50  0001 C CNN
F 3 "~" H 7250 2300 50  0001 C CNN
F 4 "~" H 7250 2300 50  0001 C CNN "Datasheet"
F 5 "J6" H 7250 2300 50  0001 C CNN "Reference"
F 6 "Conn_01x04_Male" H 7250 2300 50  0001 C CNN "Value"
	1    7250 2300
	-1   0    0    1   
$EndComp
Wire Wire Line
	7050 2400 6450 2400
Wire Wire Line
	7050 2300 6450 2300
Wire Wire Line
	7050 2100 6850 2100
Wire Wire Line
	6850 2100 6850 1600
Wire Wire Line
	6850 1600 5850 1600
Wire Wire Line
	5750 1600 5850 1600
Connection ~ 5850 1600
$Comp
L power:GND #PWR05
U 1 1 61C560E1
P 7000 2450
F 0 "#PWR05" H 7000 2200 50  0001 C CNN
F 1 "GND" H 7005 2277 50  0000 C CNN
F 2 "" H 7000 2450 50  0001 C CNN
F 3 "" H 7000 2450 50  0001 C CNN
	1    7000 2450
	1    0    0    -1  
$EndComp
Wire Wire Line
	7050 2200 7000 2200
Wire Wire Line
	7000 2200 7000 2450
Wire Wire Line
	5250 4200 5350 4200
Wire Wire Line
	5450 4200 5550 4200
Connection ~ 5550 4200
Wire Wire Line
	5550 4200 5650 4200
Connection ~ 5650 4200
Wire Wire Line
	5650 4200 5750 4200
Connection ~ 5750 4200
Wire Wire Line
	5750 4200 5850 4200
Connection ~ 5850 4200
Wire Wire Line
	5850 4200 5950 4200
Wire Wire Line
	5350 4200 5450 4200
Connection ~ 5350 4200
Connection ~ 5450 4200
$Comp
L power:GND #PWR04
U 1 1 61C57DC9
P 5450 4300
F 0 "#PWR04" H 5450 4050 50  0001 C CNN
F 1 "GND" H 5455 4127 50  0000 C CNN
F 2 "" H 5450 4300 50  0001 C CNN
F 3 "" H 5450 4300 50  0001 C CNN
	1    5450 4300
	1    0    0    -1  
$EndComp
Wire Wire Line
	5450 4200 5450 4300
$Comp
L Jumper:Jumper_2_Bridged JP3
U 1 1 61C5BB5D
P 8950 1700
F 0 "JP3" H 8950 1895 50  0000 C CNN
F 1 "Jumper_2_Bridged" H 8950 1804 50  0000 C CNN
F 2 "Connector_PinHeader_2.54mm:PinHeader_1x02_P2.54mm_Vertical" H 8950 1700 50  0001 C CNN
F 3 "~" H 8950 1700 50  0001 C CNN
F 4 "~" H 8950 1700 50  0001 C CNN "Datasheet"
F 5 "JP3" H 8950 1700 50  0001 C CNN "Reference"
F 6 "Jumper_2_Bridged" H 8950 1700 50  0001 C CNN "Value"
	1    8950 1700
	1    0    0    -1  
$EndComp
$Comp
L Device:R R5
U 1 1 61C70F82
P 9500 1700
F 0 "R5" V 9293 1700 50  0000 C CNN
F 1 "470" V 9384 1700 50  0000 C CNN
F 2 "Resistor_SMD:R_0603_1608Metric_Pad0.98x0.95mm_HandSolder" V 9430 1700 50  0001 C CNN
F 3 "~" H 9500 1700 50  0001 C CNN
F 4 "~" H 9500 1700 50  0001 C CNN "Datasheet"
F 5 "R5" H 9500 1700 50  0001 C CNN "Reference"
F 6 "470" H 9500 1700 50  0001 C CNN "Value"
F 7 " C23179 " H 9500 1700 50  0001 C CNN "LCSC_CODE"
	1    9500 1700
	0    1    1    0   
$EndComp
$Comp
L Device:LED D1
U 1 1 61C71D20
P 10000 1700
F 0 "D1" H 9993 1445 50  0000 C CNN
F 1 "RED LED" H 9993 1536 50  0000 C CNN
F 2 "LED_SMD:LED_0603_1608Metric" H 10000 1700 50  0001 C CNN
F 3 "~" H 10000 1700 50  0001 C CNN
F 4 "~" H 10000 1700 50  0001 C CNN "Datasheet"
F 5 "D1" H 10000 1700 50  0001 C CNN "Reference"
F 6 "RED LED" H 10000 1700 50  0001 C CNN "Value"
F 7 "C118330" H 10000 1700 50  0001 C CNN "LCSC_CODE"
	1    10000 1700
	-1   0    0    1   
$EndComp
$Comp
L power:GND #PWR09
U 1 1 61C72918
P 10250 1800
F 0 "#PWR09" H 10250 1550 50  0001 C CNN
F 1 "GND" H 10255 1627 50  0000 C CNN
F 2 "" H 10250 1800 50  0001 C CNN
F 3 "" H 10250 1800 50  0001 C CNN
	1    10250 1800
	1    0    0    -1  
$EndComp
Wire Wire Line
	10250 1800 10250 1700
Wire Wire Line
	10250 1700 10150 1700
Wire Wire Line
	9850 1700 9650 1700
Wire Wire Line
	9350 1700 9150 1700
Text HLabel 9150 4250 0    50   Input ~ 0
SPI1nCE1_GPIO17
Wire Wire Line
	8750 1700 8550 1700
$Comp
L Device:R R7
U 1 1 61C7E174
P 9500 2750
F 0 "R7" V 9293 2750 50  0000 C CNN
F 1 "330" V 9384 2750 50  0000 C CNN
F 2 "Resistor_SMD:R_0603_1608Metric_Pad0.98x0.95mm_HandSolder" V 9430 2750 50  0001 C CNN
F 3 "~" H 9500 2750 50  0001 C CNN
F 4 "~" H 9500 2750 50  0001 C CNN "Datasheet"
F 5 "R7" H 9500 2750 50  0001 C CNN "Reference"
F 6 "330" H 9500 2750 50  0001 C CNN "Value"
F 7 " C23138 " H 9500 2750 50  0001 C CNN "LCSC_CODE"
	1    9500 2750
	0    1    1    0   
$EndComp
$Comp
L Device:LED D3
U 1 1 61C7E17A
P 10000 2750
F 0 "D3" H 9993 2495 50  0000 C CNN
F 1 "GREEN LED" H 9993 2586 50  0000 C CNN
F 2 "LED_SMD:LED_0603_1608Metric" H 10000 2750 50  0001 C CNN
F 3 "~" H 10000 2750 50  0001 C CNN
F 4 "~" H 10000 2750 50  0001 C CNN "Datasheet"
F 5 "D3" H 10000 2750 50  0001 C CNN "Reference"
F 6 "GREEN LED" H 10000 2750 50  0001 C CNN "Value"
F 7 "C72043" H 10000 2750 50  0001 C CNN "LCSC_CODE"
	1    10000 2750
	-1   0    0    1   
$EndComp
$Comp
L power:GND #PWR010
U 1 1 61C7E180
P 10250 2850
F 0 "#PWR010" H 10250 2600 50  0001 C CNN
F 1 "GND" H 10255 2677 50  0000 C CNN
F 2 "" H 10250 2850 50  0001 C CNN
F 3 "" H 10250 2850 50  0001 C CNN
	1    10250 2850
	1    0    0    -1  
$EndComp
Wire Wire Line
	10250 2850 10250 2750
Wire Wire Line
	10250 2750 10150 2750
Wire Wire Line
	9850 2750 9650 2750
Wire Wire Line
	9350 2750 9150 2750
Text HLabel 7550 4250 0    50   Input ~ 0
SPI1nCE0_GPIO18
Wire Wire Line
	8750 2750 8550 2750
$Comp
L Device:R R6
U 1 1 61C804E7
P 9500 2250
F 0 "R6" V 9293 2250 50  0000 C CNN
F 1 "470" V 9384 2250 50  0000 C CNN
F 2 "Resistor_SMD:R_0603_1608Metric_Pad0.98x0.95mm_HandSolder" V 9430 2250 50  0001 C CNN
F 3 "~" H 9500 2250 50  0001 C CNN
F 4 "~" H 9500 2250 50  0001 C CNN "Datasheet"
F 5 "R6" H 9500 2250 50  0001 C CNN "Reference"
F 6 "470" H 9500 2250 50  0001 C CNN "Value"
F 7 " C23179 " H 9500 2250 50  0001 C CNN "LCSC_CODE"
	1    9500 2250
	0    1    1    0   
$EndComp
$Comp
L Device:LED D2
U 1 1 61C804ED
P 10000 2250
F 0 "D2" H 9993 1995 50  0000 C CNN
F 1 "YELLOW LED" H 9993 2086 50  0000 C CNN
F 2 "LED_SMD:LED_0603_1608Metric" H 10000 2250 50  0001 C CNN
F 3 "~" H 10000 2250 50  0001 C CNN
F 4 "~" H 10000 2250 50  0001 C CNN "Datasheet"
F 5 "D2" H 10000 2250 50  0001 C CNN "Reference"
F 6 "YELLOW LED" H 10000 2250 50  0001 C CNN "Value"
F 7 "C72038" H 10000 2250 50  0001 C CNN "LCSC_CODE"
	1    10000 2250
	-1   0    0    1   
$EndComp
$Comp
L power:GND #PWR011
U 1 1 61C804F3
P 10250 2350
F 0 "#PWR011" H 10250 2100 50  0001 C CNN
F 1 "GND" H 10255 2177 50  0000 C CNN
F 2 "" H 10250 2350 50  0001 C CNN
F 3 "" H 10250 2350 50  0001 C CNN
	1    10250 2350
	1    0    0    -1  
$EndComp
Wire Wire Line
	10250 2350 10250 2250
Wire Wire Line
	10250 2250 10150 2250
Wire Wire Line
	9850 2250 9650 2250
Wire Wire Line
	9350 2250 9150 2250
Text HLabel 8550 2250 0    50   Input ~ 0
GPIO23
Wire Wire Line
	8750 2250 8550 2250
$Comp
L Device:R R8
U 1 1 61C817BE
P 9500 3300
F 0 "R8" V 9293 3300 50  0000 C CNN
F 1 "220" V 9384 3300 50  0000 C CNN
F 2 "Resistor_SMD:R_0603_1608Metric_Pad0.98x0.95mm_HandSolder" V 9430 3300 50  0001 C CNN
F 3 "~" H 9500 3300 50  0001 C CNN
F 4 "~" H 9500 3300 50  0001 C CNN "Datasheet"
F 5 "R8" H 9500 3300 50  0001 C CNN "Reference"
F 6 "220" H 9500 3300 50  0001 C CNN "Value"
F 7 "C22962 " H 9500 3300 50  0001 C CNN "LCSC_CODE"
	1    9500 3300
	0    1    1    0   
$EndComp
$Comp
L Device:LED D4
U 1 1 61C817C4
P 10000 3300
F 0 "D4" H 9993 3045 50  0000 C CNN
F 1 "BLUE LED" H 9993 3136 50  0000 C CNN
F 2 "LED_SMD:LED_0603_1608Metric" H 10000 3300 50  0001 C CNN
F 3 "~" H 10000 3300 50  0001 C CNN
F 4 "~" H 10000 3300 50  0001 C CNN "Datasheet"
F 5 "D4" H 10000 3300 50  0001 C CNN "Reference"
F 6 "BLUE LED" H 10000 3300 50  0001 C CNN "Value"
F 7 "C72041" H 10000 3300 50  0001 C CNN "LCSC_CODE"
	1    10000 3300
	-1   0    0    1   
$EndComp
$Comp
L power:GND #PWR012
U 1 1 61C817CA
P 10250 3400
F 0 "#PWR012" H 10250 3150 50  0001 C CNN
F 1 "GND" H 10255 3227 50  0000 C CNN
F 2 "" H 10250 3400 50  0001 C CNN
F 3 "" H 10250 3400 50  0001 C CNN
	1    10250 3400
	1    0    0    -1  
$EndComp
Wire Wire Line
	10250 3400 10250 3300
Wire Wire Line
	10250 3300 10150 3300
Wire Wire Line
	9850 3300 9650 3300
Wire Wire Line
	9350 3300 9150 3300
Text HLabel 8550 3300 0    50   Input ~ 0
GPIO24
Wire Wire Line
	8750 3300 8550 3300
Wire Wire Line
	3550 2000 4850 2000
Wire Wire Line
	3550 2100 4850 2100
Text HLabel 4700 2400 0    50   Input ~ 0
SPI1nCE1_GPIO17
Text HLabel 4700 2500 0    50   Input ~ 0
SPI1nCE0_GPIO18
Text HLabel 4700 3200 0    50   Input ~ 0
GPIO23
Text HLabel 4700 3300 0    50   Input ~ 0
GPIO24
Wire Wire Line
	4850 3200 4700 3200
Wire Wire Line
	4850 3300 4700 3300
Text HLabel 6900 3300 2    50   Input ~ 0
MOSI0_GPIO10
Text HLabel 4700 3100 0    50   Input ~ 0
GPIO22
Text HLabel 4700 3600 0    50   Input ~ 0
GPIO27
Wire Wire Line
	4850 3100 4700 3100
Wire Wire Line
	4850 3600 4700 3600
Text HLabel 4700 3400 0    50   Input ~ 0
GPIO25
Wire Wire Line
	4850 3400 4700 3400
Wire Wire Line
	7750 3900 7550 3900
$Comp
L Switch:SW_Push SW1
U 1 1 61CE81E5
P 8450 3900
F 0 "SW1" H 8450 4185 50  0000 C CNN
F 1 "SW_Push" H 8450 4094 50  0000 C CNN
F 2 "Button_Switch_THT:SW_PUSH_6mm_H4.3mm" H 8450 4100 50  0001 C CNN
F 3 "~" H 8450 4100 50  0001 C CNN
F 4 "~" H 8450 3900 50  0001 C CNN "Datasheet"
F 5 "SW1" H 8450 3900 50  0001 C CNN "Reference"
F 6 "SW_Push" H 8450 3900 50  0001 C CNN "Value"
F 7 "C782804" H 8450 3900 50  0001 C CNN "LCSC_CODE"
	1    8450 3900
	1    0    0    -1  
$EndComp
$Comp
L Device:R R2
U 1 1 61CF3DE6
P 8200 4100
F 0 "R2" H 8270 4146 50  0000 L CNN
F 1 "470" H 8270 4055 50  0000 L CNN
F 2 "Resistor_SMD:R_0603_1608Metric_Pad0.98x0.95mm_HandSolder" V 8130 4100 50  0001 C CNN
F 3 "~" H 8200 4100 50  0001 C CNN
F 4 "~" H 8200 4100 50  0001 C CNN "Datasheet"
F 5 "R2" H 8200 4100 50  0001 C CNN "Reference"
F 6 "470" H 8200 4100 50  0001 C CNN "Value"
F 7 " C23179 " H 8200 4100 50  0001 C CNN "LCSC_CODE"
	1    8200 4100
	1    0    0    -1  
$EndComp
$Comp
L Device:R R1
U 1 1 61CE21F6
P 7900 3900
F 0 "R1" V 7693 3900 50  0000 C CNN
F 1 "8k2" V 7784 3900 50  0000 C CNN
F 2 "Resistor_SMD:R_0603_1608Metric_Pad0.98x0.95mm_HandSolder" V 7830 3900 50  0001 C CNN
F 3 "~" H 7900 3900 50  0001 C CNN
F 4 "~" H 7900 3900 50  0001 C CNN "Datasheet"
F 5 "R1" H 7900 3900 50  0001 C CNN "Reference"
F 6 "8k2" H 7900 3900 50  0001 C CNN "Value"
F 7 " C25981 " H 7900 3900 50  0001 C CNN "LCSC_CODE"
	1    7900 3900
	0    1    1    0   
$EndComp
$Comp
L power:GND #PWR06
U 1 1 61D3D975
P 8650 4000
F 0 "#PWR06" H 8650 3750 50  0001 C CNN
F 1 "GND" H 8655 3827 50  0000 C CNN
F 2 "" H 8650 4000 50  0001 C CNN
F 3 "" H 8650 4000 50  0001 C CNN
	1    8650 4000
	1    0    0    -1  
$EndComp
Wire Wire Line
	8650 3900 8650 4000
Text HLabel 7000 1600 2    50   Input ~ 0
3V3
Wire Wire Line
	7000 1600 6850 1600
Connection ~ 6850 1600
Text HLabel 7550 3900 0    50   Input ~ 0
3V3
Text HLabel 7500 5000 0    50   Input ~ 0
MOSI0_GPIO10
Text HLabel 8550 2750 0    50   Input ~ 0
GPIO22
Text HLabel 9200 5000 0    50   Input ~ 0
GPIO25
Text HLabel 8550 1700 0    50   Input ~ 0
GPIO27
Wire Wire Line
	8050 3900 8200 3900
Wire Wire Line
	8200 3900 8200 3950
Connection ~ 8200 3900
Wire Wire Line
	8200 3900 8250 3900
Wire Wire Line
	7600 4250 7550 4250
Wire Wire Line
	8200 4250 8000 4250
Wire Wire Line
	7750 4650 7550 4650
$Comp
L Switch:SW_Push SW3
U 1 1 61E403D9
P 8450 4650
F 0 "SW3" H 8450 4935 50  0000 C CNN
F 1 "SW_Push" H 8450 4844 50  0000 C CNN
F 2 "Button_Switch_THT:SW_PUSH_6mm_H4.3mm" H 8450 4850 50  0001 C CNN
F 3 "~" H 8450 4850 50  0001 C CNN
F 4 "~" H 8450 4650 50  0001 C CNN "Datasheet"
F 5 "SW3" H 8450 4650 50  0001 C CNN "Reference"
F 6 "SW_Push" H 8450 4650 50  0001 C CNN "Value"
F 7 "C782804" H 8450 4650 50  0001 C CNN "LCSC_CODE"
	1    8450 4650
	1    0    0    -1  
$EndComp
$Comp
L Device:R R10
U 1 1 61E403DF
P 8200 4850
F 0 "R10" H 8270 4896 50  0000 L CNN
F 1 "470" H 8270 4805 50  0000 L CNN
F 2 "Resistor_SMD:R_0603_1608Metric_Pad0.98x0.95mm_HandSolder" V 8130 4850 50  0001 C CNN
F 3 "~" H 8200 4850 50  0001 C CNN
F 4 "~" H 8200 4850 50  0001 C CNN "Datasheet"
F 5 "R10" H 8200 4850 50  0001 C CNN "Reference"
F 6 "470" H 8200 4850 50  0001 C CNN "Value"
F 7 " C23179 " H 8200 4850 50  0001 C CNN "LCSC_CODE"
	1    8200 4850
	1    0    0    -1  
$EndComp
$Comp
L Device:R R9
U 1 1 61E403E5
P 7900 4650
F 0 "R9" V 7693 4650 50  0000 C CNN
F 1 "8k2" V 7784 4650 50  0000 C CNN
F 2 "Resistor_SMD:R_0603_1608Metric_Pad0.98x0.95mm_HandSolder" V 7830 4650 50  0001 C CNN
F 3 "~" H 7900 4650 50  0001 C CNN
F 4 "~" H 7900 4650 50  0001 C CNN "Datasheet"
F 5 "R9" H 7900 4650 50  0001 C CNN "Reference"
F 6 "8k2" H 7900 4650 50  0001 C CNN "Value"
F 7 " C25981 " H 7900 4650 50  0001 C CNN "LCSC_CODE"
	1    7900 4650
	0    1    1    0   
$EndComp
$Comp
L power:GND #PWR07
U 1 1 61E403EB
P 8650 4750
F 0 "#PWR07" H 8650 4500 50  0001 C CNN
F 1 "GND" H 8655 4577 50  0000 C CNN
F 2 "" H 8650 4750 50  0001 C CNN
F 3 "" H 8650 4750 50  0001 C CNN
	1    8650 4750
	1    0    0    -1  
$EndComp
Wire Wire Line
	8650 4650 8650 4750
Text HLabel 7550 4650 0    50   Input ~ 0
3V3
Wire Wire Line
	8050 4650 8200 4650
Wire Wire Line
	8200 4650 8200 4700
Connection ~ 8200 4650
Wire Wire Line
	8200 4650 8250 4650
Wire Wire Line
	8200 5000 8000 5000
Wire Wire Line
	9350 3900 9150 3900
$Comp
L Switch:SW_Push SW2
U 1 1 61E4E051
P 10050 3900
F 0 "SW2" H 10050 4185 50  0000 C CNN
F 1 "SW_Push" H 10050 4094 50  0000 C CNN
F 2 "Button_Switch_THT:SW_PUSH_6mm_H4.3mm" H 10050 4100 50  0001 C CNN
F 3 "~" H 10050 4100 50  0001 C CNN
F 4 "~" H 10050 3900 50  0001 C CNN "Datasheet"
F 5 "SW2" H 10050 3900 50  0001 C CNN "Reference"
F 6 "SW_Push" H 10050 3900 50  0001 C CNN "Value"
F 7 "C782804" H 10050 3900 50  0001 C CNN "LCSC_CODE"
	1    10050 3900
	1    0    0    -1  
$EndComp
$Comp
L Device:R R4
U 1 1 61E4E057
P 9800 4100
F 0 "R4" H 9870 4146 50  0000 L CNN
F 1 "470" H 9870 4055 50  0000 L CNN
F 2 "Resistor_SMD:R_0603_1608Metric_Pad0.98x0.95mm_HandSolder" V 9730 4100 50  0001 C CNN
F 3 "~" H 9800 4100 50  0001 C CNN
F 4 "~" H 9800 4100 50  0001 C CNN "Datasheet"
F 5 "R4" H 9800 4100 50  0001 C CNN "Reference"
F 6 "470" H 9800 4100 50  0001 C CNN "Value"
F 7 " C23179 " H 9800 4100 50  0001 C CNN "LCSC_CODE"
	1    9800 4100
	1    0    0    -1  
$EndComp
$Comp
L Device:R R3
U 1 1 61E4E05D
P 9500 3900
F 0 "R3" V 9293 3900 50  0000 C CNN
F 1 "8k2" V 9384 3900 50  0000 C CNN
F 2 "Resistor_SMD:R_0603_1608Metric_Pad0.98x0.95mm_HandSolder" V 9430 3900 50  0001 C CNN
F 3 "~" H 9500 3900 50  0001 C CNN
F 4 "~" H 9500 3900 50  0001 C CNN "Datasheet"
F 5 "R3" H 9500 3900 50  0001 C CNN "Reference"
F 6 "8k2" H 9500 3900 50  0001 C CNN "Value"
F 7 " C25981 " H 9500 3900 50  0001 C CNN "LCSC_CODE"
	1    9500 3900
	0    1    1    0   
$EndComp
$Comp
L power:GND #PWR08
U 1 1 61E4E063
P 10250 4000
F 0 "#PWR08" H 10250 3750 50  0001 C CNN
F 1 "GND" H 10255 3827 50  0000 C CNN
F 2 "" H 10250 4000 50  0001 C CNN
F 3 "" H 10250 4000 50  0001 C CNN
	1    10250 4000
	1    0    0    -1  
$EndComp
Wire Wire Line
	10250 3900 10250 4000
Text HLabel 9150 3900 0    50   Input ~ 0
3V3
Wire Wire Line
	9650 3900 9800 3900
Wire Wire Line
	9800 3900 9800 3950
Connection ~ 9800 3900
Wire Wire Line
	9800 3900 9850 3900
Wire Wire Line
	9200 4250 9150 4250
Wire Wire Line
	9800 4250 9600 4250
Wire Wire Line
	9400 4650 9200 4650
$Comp
L Switch:SW_Push SW4
U 1 1 61E51DB8
P 10100 4650
F 0 "SW4" H 10100 4935 50  0000 C CNN
F 1 "SW_Push" H 10100 4844 50  0000 C CNN
F 2 "Button_Switch_THT:SW_PUSH_6mm_H4.3mm" H 10100 4850 50  0001 C CNN
F 3 "~" H 10100 4850 50  0001 C CNN
F 4 "~" H 10100 4650 50  0001 C CNN "Datasheet"
F 5 "SW4" H 10100 4650 50  0001 C CNN "Reference"
F 6 "SW_Push" H 10100 4650 50  0001 C CNN "Value"
F 7 "C782804" H 10100 4650 50  0001 C CNN "LCSC_CODE"
	1    10100 4650
	1    0    0    -1  
$EndComp
$Comp
L Device:R R12
U 1 1 61E51DBE
P 9850 4850
F 0 "R12" H 9920 4896 50  0000 L CNN
F 1 "470" H 9920 4805 50  0000 L CNN
F 2 "Resistor_SMD:R_0603_1608Metric_Pad0.98x0.95mm_HandSolder" V 9780 4850 50  0001 C CNN
F 3 "~" H 9850 4850 50  0001 C CNN
F 4 "~" H 9850 4850 50  0001 C CNN "Datasheet"
F 5 "R12" H 9850 4850 50  0001 C CNN "Reference"
F 6 "470" H 9850 4850 50  0001 C CNN "Value"
F 7 " C23179 " H 9850 4850 50  0001 C CNN "LCSC_CODE"
	1    9850 4850
	1    0    0    -1  
$EndComp
$Comp
L Device:R R11
U 1 1 61E51DC4
P 9550 4650
F 0 "R11" V 9343 4650 50  0000 C CNN
F 1 "8k2" V 9434 4650 50  0000 C CNN
F 2 "Resistor_SMD:R_0603_1608Metric_Pad0.98x0.95mm_HandSolder" V 9480 4650 50  0001 C CNN
F 3 "~" H 9550 4650 50  0001 C CNN
F 4 "~" H 9550 4650 50  0001 C CNN "Datasheet"
F 5 "R11" H 9550 4650 50  0001 C CNN "Reference"
F 6 "8k2" H 9550 4650 50  0001 C CNN "Value"
F 7 " C25981 " H 9550 4650 50  0001 C CNN "LCSC_CODE"
	1    9550 4650
	0    1    1    0   
$EndComp
$Comp
L power:GND #PWR013
U 1 1 61E51DCA
P 10300 4750
F 0 "#PWR013" H 10300 4500 50  0001 C CNN
F 1 "GND" H 10305 4577 50  0000 C CNN
F 2 "" H 10300 4750 50  0001 C CNN
F 3 "" H 10300 4750 50  0001 C CNN
	1    10300 4750
	1    0    0    -1  
$EndComp
Wire Wire Line
	10300 4650 10300 4750
Text HLabel 9200 4650 0    50   Input ~ 0
3V3
Wire Wire Line
	9700 4650 9850 4650
Wire Wire Line
	9850 4650 9850 4700
Connection ~ 9850 4650
Wire Wire Line
	9850 4650 9900 4650
Wire Wire Line
	9250 5000 9200 5000
Wire Wire Line
	9850 5000 9650 5000
Wire Wire Line
	5550 1600 5450 1600
Text HLabel 5250 1600 0    50   Input ~ 0
5V
Wire Wire Line
	5450 1600 5250 1600
Connection ~ 5450 1600
$Comp
L Connector:Conn_01x04_Male J1
U 1 1 61E8C3D2
P 3350 2100
F 0 "J1" H 3458 2381 50  0000 C CNN
F 1 "Conn_01x04_Male" H 3458 2290 50  0000 C CNN
F 2 "Connector_PinHeader_2.54mm:PinHeader_1x04_P2.54mm_Vertical" H 3350 2100 50  0001 C CNN
F 3 "~" H 3350 2100 50  0001 C CNN
F 4 "~" H 3350 2100 50  0001 C CNN "Datasheet"
F 5 "J1" H 3350 2100 50  0001 C CNN "Reference"
F 6 "Conn_01x04_Male" H 3350 2100 50  0001 C CNN "Value"
	1    3350 2100
	1    0    0    -1  
$EndComp
Wire Wire Line
	3700 2200 3700 2300
Wire Wire Line
	3550 2200 3700 2200
Text HLabel 3600 2600 2    50   Input ~ 0
3V3
Wire Wire Line
	3550 2300 3550 2600
Wire Wire Line
	3550 2600 3600 2600
Text HLabel 4150 5300 2    50   Input ~ 0
3V3
Wire Wire Line
	4150 5300 3950 5300
$Comp
L power:GND #PWR01
U 1 1 61EBB837
P 4050 5350
F 0 "#PWR01" H 4050 5100 50  0001 C CNN
F 1 "GND" H 4055 5177 50  0000 C CNN
F 2 "" H 4050 5350 50  0001 C CNN
F 3 "" H 4050 5350 50  0001 C CNN
	1    4050 5350
	1    0    0    -1  
$EndComp
Wire Wire Line
	4050 5350 4050 5200
Wire Wire Line
	4050 5200 3950 5200
Text HLabel 4700 2700 0    50   Input ~ 0
MISO1
Text HLabel 4700 2800 0    50   Input ~ 0
MOSI1
Wire Wire Line
	4850 2700 4700 2700
Wire Wire Line
	4850 2800 4700 2800
Text HLabel 6900 3500 2    50   Input ~ 0
SCLK0
Text HLabel 6900 3200 2    50   Input ~ 0
MISO0
Text HLabel 6900 3100 2    50   Input ~ 0
SPI0nCE0
Text HLabel 6900 3000 2    50   Input ~ 0
SPI0nCE1
Wire Wire Line
	6900 3000 6450 3000
Wire Wire Line
	6900 3100 6450 3100
Wire Wire Line
	6450 3200 6900 3200
Wire Wire Line
	6450 3400 6550 3400
Wire Wire Line
	6550 3400 6550 3500
Wire Wire Line
	6550 3500 6900 3500
Text HLabel 4150 4700 2    50   Input ~ 0
MISO0
Text HLabel 4150 4800 2    50   Input ~ 0
MOSI0_GPIO10
Text HLabel 4150 4900 2    50   Input ~ 0
SCLK0
Text HLabel 4150 5000 2    50   Input ~ 0
SPI0nCE0
Wire Wire Line
	4150 4700 3950 4700
Wire Wire Line
	4150 4800 3950 4800
Wire Wire Line
	4150 4900 3950 4900
Wire Wire Line
	4150 5000 3950 5000
Text HLabel 5200 5300 2    50   Input ~ 0
3V3
$Comp
L power:GND #PWR03
U 1 1 61F4367D
P 5100 5350
F 0 "#PWR03" H 5100 5100 50  0001 C CNN
F 1 "GND" H 5105 5177 50  0000 C CNN
F 2 "" H 5100 5350 50  0001 C CNN
F 3 "" H 5100 5350 50  0001 C CNN
	1    5100 5350
	1    0    0    -1  
$EndComp
$Comp
L Connector:Conn_01x07_Male J2
U 1 1 61F57176
P 3750 5000
F 0 "J2" H 3858 5481 50  0000 C CNN
F 1 "Conn_01x07_Male" H 3858 5390 50  0000 C CNN
F 2 "Connector_PinHeader_2.54mm:PinHeader_1x07_P2.54mm_Vertical" H 3750 5000 50  0001 C CNN
F 3 "~" H 3750 5000 50  0001 C CNN
F 4 "~" H 3750 5000 50  0001 C CNN "Datasheet"
F 5 "J2" H 3750 5000 50  0001 C CNN "Reference"
F 6 "Conn_01x07_Male" H 3750 5000 50  0001 C CNN "Value"
	1    3750 5000
	1    0    0    -1  
$EndComp
$Comp
L Connector:Conn_01x07_Male J3
U 1 1 61F70625
P 4800 5000
F 0 "J3" H 4908 5481 50  0000 C CNN
F 1 "Conn_01x07_Male" H 4908 5390 50  0000 C CNN
F 2 "Connector_PinHeader_2.54mm:PinHeader_1x07_P2.54mm_Vertical" H 4800 5000 50  0001 C CNN
F 3 "~" H 4800 5000 50  0001 C CNN
F 4 "~" H 4800 5000 50  0001 C CNN "Datasheet"
F 5 "J3" H 4800 5000 50  0001 C CNN "Reference"
F 6 "Conn_01x07_Male" H 4800 5000 50  0001 C CNN "Value"
	1    4800 5000
	1    0    0    -1  
$EndComp
Text HLabel 4150 5100 2    50   Input ~ 0
SPI0nCE1
Wire Wire Line
	4150 5100 3950 5100
Wire Wire Line
	4850 2900 4700 2900
Text HLabel 4700 2900 0    50   Input ~ 0
SCLK1
$Comp
L Jumper:Jumper_2_Bridged JP5
U 1 1 61FF5E0C
P 8950 2750
F 0 "JP5" H 8950 2945 50  0000 C CNN
F 1 "Jumper_2_Bridged" H 8950 2854 50  0000 C CNN
F 2 "Connector_PinHeader_2.54mm:PinHeader_1x02_P2.54mm_Vertical" H 8950 2750 50  0001 C CNN
F 3 "~" H 8950 2750 50  0001 C CNN
F 4 "~" H 8950 2750 50  0001 C CNN "Datasheet"
F 5 "JP5" H 8950 2750 50  0001 C CNN "Reference"
F 6 "Jumper_2_Bridged" H 8950 2750 50  0001 C CNN "Value"
	1    8950 2750
	1    0    0    -1  
$EndComp
$Comp
L Jumper:Jumper_2_Bridged JP4
U 1 1 61FFBCD0
P 8950 2250
F 0 "JP4" H 8950 2445 50  0000 C CNN
F 1 "Jumper_2_Bridged" H 8950 2354 50  0000 C CNN
F 2 "Connector_PinHeader_2.54mm:PinHeader_1x02_P2.54mm_Vertical" H 8950 2250 50  0001 C CNN
F 3 "~" H 8950 2250 50  0001 C CNN
F 4 "~" H 8950 2250 50  0001 C CNN "Datasheet"
F 5 "JP4" H 8950 2250 50  0001 C CNN "Reference"
F 6 "Jumper_2_Bridged" H 8950 2250 50  0001 C CNN "Value"
	1    8950 2250
	1    0    0    -1  
$EndComp
$Comp
L Jumper:Jumper_2_Bridged JP6
U 1 1 62001943
P 8950 3300
F 0 "JP6" H 8950 3495 50  0000 C CNN
F 1 "Jumper_2_Bridged" H 8950 3404 50  0000 C CNN
F 2 "Connector_PinHeader_2.54mm:PinHeader_1x02_P2.54mm_Vertical" H 8950 3300 50  0001 C CNN
F 3 "~" H 8950 3300 50  0001 C CNN
F 4 "~" H 8950 3300 50  0001 C CNN "Datasheet"
F 5 "JP6" H 8950 3300 50  0001 C CNN "Reference"
F 6 "Jumper_2_Bridged" H 8950 3300 50  0001 C CNN "Value"
	1    8950 3300
	1    0    0    -1  
$EndComp
$Comp
L Jumper:Jumper_2_Bridged JP8
U 1 1 620081A8
P 9450 5000
F 0 "JP8" H 9450 5195 50  0000 C CNN
F 1 "Jumper_2_Bridged" H 9450 5104 50  0000 C CNN
F 2 "Connector_PinHeader_2.54mm:PinHeader_1x02_P2.54mm_Vertical" H 9450 5000 50  0001 C CNN
F 3 "~" H 9450 5000 50  0001 C CNN
F 4 "~" H 9450 5000 50  0001 C CNN "Datasheet"
F 5 "JP8" H 9450 5000 50  0001 C CNN "Reference"
F 6 "Jumper_2_Bridged" H 9450 5000 50  0001 C CNN "Value"
	1    9450 5000
	1    0    0    -1  
$EndComp
$Comp
L Jumper:Jumper_2_Bridged JP2
U 1 1 6200E0C1
P 9400 4250
F 0 "JP2" H 9400 4445 50  0000 C CNN
F 1 "Jumper_2_Bridged" H 9400 4354 50  0000 C CNN
F 2 "Connector_PinHeader_2.54mm:PinHeader_1x02_P2.54mm_Vertical" H 9400 4250 50  0001 C CNN
F 3 "~" H 9400 4250 50  0001 C CNN
F 4 "~" H 9400 4250 50  0001 C CNN "Datasheet"
F 5 "JP2" H 9400 4250 50  0001 C CNN "Reference"
F 6 "Jumper_2_Bridged" H 9400 4250 50  0001 C CNN "Value"
	1    9400 4250
	1    0    0    -1  
$EndComp
$Comp
L Jumper:Jumper_2_Bridged JP1
U 1 1 62019B87
P 7800 4250
F 0 "JP1" H 7800 4445 50  0000 C CNN
F 1 "Jumper_2_Bridged" H 7800 4354 50  0000 C CNN
F 2 "Connector_PinHeader_2.54mm:PinHeader_1x02_P2.54mm_Vertical" H 7800 4250 50  0001 C CNN
F 3 "~" H 7800 4250 50  0001 C CNN
F 4 "~" H 7800 4250 50  0001 C CNN "Datasheet"
F 5 "JP1" H 7800 4250 50  0001 C CNN "Reference"
F 6 "Jumper_2_Bridged" H 7800 4250 50  0001 C CNN "Value"
	1    7800 4250
	1    0    0    -1  
$EndComp
$Comp
L Jumper:Jumper_2_Bridged JP7
U 1 1 6201F9E1
P 7800 5000
F 0 "JP7" H 7800 5195 50  0000 C CNN
F 1 "Jumper_2_Bridged" H 7800 5104 50  0000 C CNN
F 2 "Connector_PinHeader_2.54mm:PinHeader_1x02_P2.54mm_Vertical" H 7800 5000 50  0001 C CNN
F 3 "~" H 7800 5000 50  0001 C CNN
F 4 "~" H 7800 5000 50  0001 C CNN "Datasheet"
F 5 "JP7" H 7800 5000 50  0001 C CNN "Reference"
F 6 "Jumper_2_Bridged" H 7800 5000 50  0001 C CNN "Value"
	1    7800 5000
	1    0    0    -1  
$EndComp
$Comp
L Connector:Conn_01x02_Male J5
U 1 1 61C4EC82
P 6150 4800
F 0 "J5" H 6258 4981 50  0000 C CNN
F 1 "Conn_01x02_Male" H 6258 4890 50  0000 C CNN
F 2 "Connector_PinHeader_2.54mm:PinHeader_1x02_P2.54mm_Vertical" H 6150 4800 50  0001 C CNN
F 3 "~" H 6150 4800 50  0001 C CNN
F 4 "~" H 6150 4800 50  0001 C CNN "Datasheet"
F 5 "J5" H 6150 4800 50  0001 C CNN "Reference"
F 6 "Conn_01x02_Male" H 6150 4800 50  0001 C CNN "Value"
	1    6150 4800
	1    0    0    -1  
$EndComp
$Comp
L power:GND #PWR0101
U 1 1 61C52AF4
P 6400 4950
F 0 "#PWR0101" H 6400 4700 50  0001 C CNN
F 1 "GND" H 6405 4777 50  0000 C CNN
F 2 "" H 6400 4950 50  0001 C CNN
F 3 "" H 6400 4950 50  0001 C CNN
	1    6400 4950
	1    0    0    -1  
$EndComp
Wire Wire Line
	6350 4900 6400 4900
Wire Wire Line
	6400 4900 6400 4950
Text HLabel 6650 4800 2    50   Input ~ 0
5V
Wire Wire Line
	6650 4800 6350 4800
Text HLabel 5200 5100 2    50   Input ~ 0
SPI1nCE1_GPIO17
Wire Wire Line
	5200 5000 5000 5000
Text HLabel 5200 5000 2    50   Input ~ 0
SPI1nCE0_GPIO18
Wire Wire Line
	5200 4900 5000 4900
Wire Wire Line
	5200 4800 5000 4800
Wire Wire Line
	5200 4700 5000 4700
Text HLabel 5200 4900 2    50   Input ~ 0
SCLK1
Text HLabel 5200 4800 2    50   Input ~ 0
MOSI1
Text HLabel 5200 4700 2    50   Input ~ 0
MISO1
Wire Wire Line
	5100 5350 5100 5200
Wire Wire Line
	5200 5100 5000 5100
Wire Wire Line
	5100 5200 5000 5200
Wire Wire Line
	5200 5300 5000 5300
Wire Wire Line
	4700 2400 4850 2400
Wire Wire Line
	4700 2500 4850 2500
Wire Wire Line
	6450 3300 6900 3300
Wire Wire Line
	7600 5000 7500 5000
$EndSCHEMATC
